Hierarchical Time Series Forecasting of ambulance demand
…
.pull-left[
<img src="figure/hierarchy12-1.png" width="120%" style="display: block; margin: auto;" />
]

.pull-right[
<img src="figure/wast_hiararchy/group.png" width="90%" style="display: block; margin: auto;" />
]

---
## Incident data

.remark-code[

```
#> # A tsibble: 967,400 x 6 [1D]
#> # Key:       control, lhb_code, priority, nature [691]
#>   date       control lhb_code priority nature                   incidents
#>   <date>     <chr>   <fct>    <fct>    <fct>                        <dbl>
#> 1 2017-12-26 N       BC       AMBER    BREATHING PROBLEMS              62
#> 2 2017-01-01 N       BC       AMBER    FALLS                           58
#> 3 2016-03-28 N       BC       AMBER    CHEST PAIN                      55
#> 4 2016-04-14 N       BC       GREEN    HEALTH CARE PROFESSIONAL        53
#> 5 2016-07-22 N       BC       GREEN    HEALTH CARE PROFESSIONAL        53
#> 6 2016-07-29 N       BC       GREEN    HEALTH CARE PROFESSIONAL        53
#> 7 2017-01-03 N       BC       AMBER    BREATHING PROBLEMS              52
#> 8 2018-01-14 N       BC       AMBER    BREATHING PROBLEMS              52
#> # … with 967,392 more rows
```
]

---
## Hierarchically aggregated incident data

```
#> # A tsibble: 2,142,000 x 6 [1D]
#> # Key:       control, priority, nature, lhb [1,530]
#>   date       control      lhb          priority     nature       incident
#>   <date>     <chr*>       <chr*>       <chr*>       <chr*>          <dbl>
#> 1 2015-10-01 <aggregated> <aggregated> <aggregated> <aggregated>     1020
#> 2 2015-10-02 <aggregated> <aggregated> <aggregated> <aggregated>     1021
#> 3 2015-10-03 <aggregated> <aggregated> <aggregated> <aggregated>     1025
#> 4 2015-10-04 <aggregated> <aggregated> <aggregated> <aggregated>     1043
#> 5 2015-10-05 <aggregated> <aggregated> <aggregated> <aggregated>     1067
#> 6 2015-10-06 <aggregated> <aggregated> <aggregated> <aggregated>     1063
#> 7 2015-10-07 <aggregated> <aggregated> <aggregated> <aggregated>      973
#> 8 2015-10-08 <aggregated> <aggregated> <aggregated> <aggregated>     1057
#> # … with 2,141,992 more rows
```
…
