Forecasting multiple seasonality
…
```r
ae <- 
readr::read_csv("data/ae_uk.csv",
col_types = 
cols(arrival_time
=col_datetime(format = "%d/%m/%Y %H:%M"))) %>% 
  mutate(arrival_time=
           lubridate::force_tz(arrival_time,tz="GB"))
```
]

.pull-right[

```
## # A tibble: 773,779 x 4
##       ID gender type_injury arrival_time       
##    <dbl> <chr>  <chr>       <dttm>             
##  1     1 male   minor       2010-01-01 00:35:00
##  2     2 male   minor       2010-01-01 00:57:00
##  3     3 male   minor       2010-01-01 00:42:00
##  4     4 male   minor       2010-01-01 00:02:00
##  5     5 male   minor       2010-01-01 00:24:00
##  6     6 female major       2010-01-01 00:48:00
##  7     7 female minor       2010-01-01 00:10:00
##  8     8 male   minor       2010-01-01 00:39:00
##  9     9 female minor       2010-01-01 00:56:00
## 10    10 female minor       2010-01-01 00:05:00
## # … with 773,769 more rows
```
…
```r
ae_tsb <- ae %>%
  as_tsibble(
    key = c(ID,gender,type_injury),
    index = arrival_time, 
    regular=FALSE)
```
]

.pull-right[

```
## # A tsibble: 773,779 x 4 [!] <GB>
## # Key:       ID, gender, type_injury [773,779]
##       ID gender type_injury arrival_time       
##    <dbl> <chr>  <chr>       <dttm>             
##  1     1 male   minor       2010-01-01 00:35:00
##  2     2 male   minor       2010-01-01 00:57:00
##  3     3 male   minor       2010-01-01 00:42:00
##  4     4 male   minor       2010-01-01 00:02:00
##  5     5 male   minor       2010-01-01 00:24:00
##  6     6 female major       2010-01-01 00:48:00
##  7     7 female minor       2010-01-01 00:10:00
##  8     8 male   minor       2010-01-01 00:39:00
##  9     9 female minor       2010-01-01 00:56:00
## 10    10 female minor       2010-01-01 00:05:00
## # … with 773,769 more rows
```
…
```r
ae_half_hourly <- 
ae_tsb %>%
index_by(time = 
lubridate::floor_date(arrival_time, 
"30 minutes")) %>%
summarise(
admission=n())
```
]

.pull-right[

```
## # A tsibble: 106,098 x 2 [30m] <GB>
##    time                admission
##    <dttm>                  <int>
##  1 2010-01-01 00:00:00         6
##  2 2010-01-01 00:30:00         7
##  3 2010-01-01 01:00:00         6
##  4 2010-01-01 01:30:00         9
##  5 2010-01-01 02:00:00         5
##  6 2010-01-01 02:30:00         7
##  7 2010-01-01 03:00:00         9
##  8 2010-01-01 03:30:00         6
##  9 2010-01-01 04:00:00         5
## 10 2010-01-01 04:30:00         6
## # … with 106,088 more rows
```
…
.pull-left[
### fix the temporal gap

```r
ae_half_hourly_without_gap <- 
  ae_half_hourly %>% 
  fill_gaps(admission=0L)
```
]

.pull-right[

```
## # A tsibble: 109,534 x 2 [30m] <GB>
##    time                admission
##    <dttm>                  <int>
##  1 2010-01-01 00:00:00         6
##  2 2010-01-01 00:30:00         7
##  3 2010-01-01 01:00:00         6
##  4 2010-01-01 01:30:00         9
##  5 2010-01-01 02:00:00         5
##  6 2010-01-01 02:30:00         7
##  7 2010-01-01 03:00:00         9
##  8 2010-01-01 03:30:00         6
##  9 2010-01-01 04:00:00         5
## 10 2010-01-01 04:30:00         6
## # … with 109,524 more rows
```
…
